instance: mymoonlight



logon: adminmoonlight
senha: NGj57aDhEVngFL9
server: mymoonlight.cwzhflww2mye.us-east-2.rds.amazonaws.com,1433




SQL Server Express Edition 14.00.3049.1.v1


Account
386216082165
KMS key ID
d37668af-703f-4b52-85b7-e8acaff5c184